module backend

go 1.21.4

require (
	github.com/apsdehal/go-logger v0.0.0-20190515212710-b0d6ccfee0e6
	github.com/buaazp/fasthttprouter v0.1.1
	github.com/dgrijalva/jwt-go v3.2.0+incompatible
	github.com/ilyakaznacheev/cleanenv v1.5.0
	github.com/valyala/fasthttp v1.54.0
	golang.org/x/crypto v0.23.0
	gorm.io/driver/postgres v1.5.7
	gorm.io/gorm v1.25.10
)

require (
	github.com/BurntSushi/toml v1.2.1 // indirect
	github.com/andybalholm/brotli v1.1.0 // indirect
	github.com/jackc/pgpassfile v1.0.0 // indirect
	github.com/jackc/pgservicefile v0.0.0-20221227161230-091c0ba34f0a // indirect
	github.com/jackc/pgx/v5 v5.4.3 // indirect
	github.com/jinzhu/inflection v1.0.0 // indirect
	github.com/jinzhu/now v1.1.5 // indirect
	github.com/joho/godotenv v1.5.1 // indirect
	github.com/klauspost/compress v1.17.7 // indirect
	github.com/kr/text v0.2.0 // indirect
	github.com/rogpeppe/go-internal v1.12.0 // indirect
	github.com/valyala/bytebufferpool v1.0.0 // indirect
	golang.org/x/text v0.15.0 // indirect
	gopkg.in/yaml.v3 v3.0.1 // indirect
	olympos.io/encoding/edn v0.0.0-20201019073823-d3554ca0b0a3 // indirect
)
